{
  "editor.accessibilitySupport": "off",
  "redhat.telemetry.enabled": false,
  "editor.tabCompletion": "on",
  "editor.fontLigatures": true,
  "editor.suggestOnTriggerCharacters": true, //test for pandoc citer
  "security.workspace.trust.untrustedFiles": "open",
  "terminal.integrated.env.osx": {
    "FIG_NEW_SESSION": "1"
  },
  "workbench.iconTheme": "material-icon-theme",
  "Lua.telemetry.enable": false,

  "terminal.integrated.fontFamily":"'CaskaydiaCove Nerd Font', 'VictorMono Nerd Font', 'FiraCode Nerd Font', 'Hack Nerd Font', 'monospace'",
  "terminal.integrated.fontSize": 14,
  "terminal.integrated.cursorBlinking": true,

  "[markdown]": {
    "editor.quickSuggestions": {
      "other": true,
      "comments": false,
      "strings": true
    },
    "editor.defaultFormatter": "yzhang.markdown-all-in-one"
  },
  "workbench.settings.enableNaturalLanguageSearch": false,
  "extensions.autoUpdate": "onlyEnabledExtensions",
  "workbench.enableExperiments": false,
  "quarto.mathjax.theme": "dark",
  "[quarto]": {
    "editor.snippetSuggestions": "inline",
    "editor.defaultFormatter": "quarto.quarto",
  },
  "[r]":{
    "editor.defaultFormatter": "REditorSupport.r"
  },
  "cSpell.userWords": [
    "georeferenced",
    "HEXAGON",
    "QGIS"
  ],
  "cSpell.checkOnlyEnabledFileTypes": false,
  "cSpell.enableFiletypes": [
    "qmd",
    "!r"
  ],
  "cSpell.language": "en,it",
  "markdown.extension.print.absoluteImgPath": false,
  "markdown.extension.italic.indicator": "_",
  "markdown.extension.supportedLangIds": [
  "rmd",
  "qmd"
  ],
  "deepl.formality": "more",
  "deepl.preserveFormatting": true,
  "syncSettings.confirmSync": true,
  "syncSettings.ignoredSettings": [
    "deepl.apiKey", 
    "projectManager.git.baseFolders", 
    "languageToolLinter.external.apiKey", 
    "languageToolLinter.external.username",
    "languageToolLinter.languageTool.motherTongue"
  ],
  "syncSettings.ignoredExtensions": [
    "davidlday.languagetool-linter",
    "withfig.fig"
  ],
  "PandocCiter.DefaultBib": "/Users/andreatitolo/gitCodeberg/JabrefBib/references_noab.bib",
  "PandocCiter.ShowLog": true,
  "PandocCiter.ForgetUnusedBib": false,
  "r.bracketedPaste": true,
  "r.rterm.mac": "/opt/homebrew/bin/radian",
  "nunjucksTemplate.preserveEmptyLine": 3,
  "emmet.includeLanguages": {
    "njk": "html"
  },
  "files.associations": {
    "*.html": "njk",
    // "*.njk": "html"
  },
  "workbench.colorTheme": "Tiniri Light",
  "markdown.extension.extraLangIds": [],
  "markyMarkdown.statsShowReadingTime": true,
  "markyMarkdown.statsShowWords": true,
  "markyMarkdown.statsShowLines": false,
  "markyMarkdown.statsShowCharacters": true,
  "languageToolLinter.diagnosticSeverity": "information",
  "window.zoomLevel": 1,
  "editor.fontFamily": "'CaskaydiaCove Nerd Font', 'Hack Nerd Font','VictorMono Nerd Font', 'FiraCode Nerd Font', 'monospace'",
  "editor.linkedEditing": true,
  "workbench.preferredLightColorTheme": "Tiniri Light",
  "workbench.preferredDarkColorTheme": "Tokyo Night Storm",
  "window.autoDetectColorScheme": true,
  "editor.wordWrap": "wordWrapColumn",
  "editor.wordWrapColumn": 120,
  "terminal.integrated.defaultProfile.osx": "fish",
  "[html]": {
    "editor.defaultFormatter": "vscode.html-language-features"
  },
  "markyMarkdown.statsAlignment": "Right",
  "languageToolLinter.languageTool.ignoredWordsGlobal": [
    "endeavour"
  ],
  "deepl.tagHandling": "off",
  "deepl.splitSentences": "1",
  "markdown-checkbox.checkmark": "x",
  "markdown-checkbox.typeOfBulletPoint": "-",
  "markdown-checkbox.dateWhenChecked": false,
  "markdown-checkbox.italicWhenChecked": false,
  "markdown-checkbox.strikeThroughWhenChecked": false,
  "deepl.translationMode": "Replace",
  "git-graph.graph.colours": [
    "#427CA8",
    "#fb923c",
    "#f87171",
    "#579993",
    "#818cf8",
    "#e879f9",
    "#9ca3af",
    "#fb923c",
    "#d4d4d4",
    "#fcd34d",
    "#a3e635",
    "#14b8a6"
  ],
  "quarto.zotero.library": "none",
  "nebulaOni.update.restoreConfiguration": {
    "themeSettings": {
      "background": "Grey",
      "main": "Bumblebee",
      "highlight": "Ultra Violet",
      "focusBorder": "ON",
      "fontStyle": "Italic",
      "syntaxBrightness": "Normal",
      "comments": "Dark Violet",
      "favorite": "OFF"
    },
    "favoriteSettings": {
      "background": "Glacial Blue",
      "main": "Sakura",
      "highlight": "Ultra Violet",
      "focusBorder": "ON",
      "fontStyle": "Italic",
      "syntaxBrightness": "Dimmed",
      "comments": "Dark Magenta",
      "favorite": "Nebula Oni (Pegasus)"
    }
  },
  "editor.minimap.enabled": false,
  "julia.enableTelemetry": false,
  "terminal.integrated.commandsToSkipShell": [
    "language-julia.interrupt"
  ],
  "julia.symbolCacheDownload": true,
  "julia.executablePath": "/Users/andreatitolo/.juliaup/bin/julia",
  "continue.telemetryEnabled": false,
  "continue.showInlineTip": false,
  "workbench.productIconTheme": "fluent-icons"
}
